…
Unigram probabilities

First, let’s calculate the unigram probabilities, how often we see each word in this corpus. This is straightforward using unnest_tokens() from the tidytext package and then just count() and mutate() from dplyr.

library(tidytext)

unigram_probs <- hacker_news_text %>%
    unnest_tokens(word, text) %>%
    count(word, sort = TRUE) %>%
    mutate(p = n / sum(n))

unigram_probs

## # A tibble: 318,503 x 3
##     word       n          p
##    <chr>   <int>      <dbl>
##  1   the 1101045 0.04190098
##  2    to  761658 0.02898539
##  3     a  669067 0.02546178
##  4    of  541937 0.02062376
##  5   and  532592 0.02026813
##  6    is  431841 0.01643399
##  7  that  406506 0.01546985
##  8     i  401545 0.01528105
##  9    in  368045 0.01400619
## 10    it  333441 0.01268931
## # ... with 318,493 more rows
…
I’m not sure what the ideal value for window size is here for the skipgrams. This value determines the sliding window that we move through the text, counting up bigrams that we find within the window. When this window is bigger, the process of counting skipgrams takes longer, obviously. I experimented a bit and windows of 8 words seem to work pretty well. Probably more work needed here! I’d be happy to be pointed to more resources on this topic.

Finding all the skipgrams is a computationally expensive part of this process. Not something that just runs instantly!

library(widyr)

tidy_skipgrams <- hacker_news_text %>%
    unnest_tokens(ngram, text, token = "ngrams", n = 8) %>%
    mutate(ngramID = row_number()) %>% 
    unite(skipgramID, postID, ngramID) %>%
    unnest_tokens(word, ngram)

tidy_skipgrams

## # A tibble: 183,434,296 x 2
##    skipgramID   word
##         <chr>  <chr>
##  1        1_1      i
##  2        1_1    bet
##  3        1_1 taking
##  4        1_1      a
##  5        1_1    few
##  6        1_1 months
##  7        1_1    off
##  8        1_1   from
##  9        1_2    bet
## 10        1_2 taking
## # ... with 183,434,286 more rows
…
What are the words most associated with Facebook on Hacker News?

normalized_prob %>% 
    filter(word1 == "facebook") %>%
    arrange(-p_together)

## # A tibble: 1,746 x 7
##       word1        word2     n            p           p1           p2 p_together
##       <chr>        <chr> <dbl>        <dbl>        <dbl>        <dbl>      <dbl>
##  1 facebook     facebook 52883 3.757919e-05 0.0003340144 3.340144e-04  336.83488
##  2 facebook    messenger   348 2.472923e-07 0.0003340144 1.122642e-05   65.94840
##  3 facebook   zuckerburg    23 1.634403e-08 0.0003340144 8.752799e-07   55.90454
##  4 facebook     statuses    40 2.842440e-08 0.0003340144 1.522226e-06   55.90454
##  5 facebook      myspace   330 2.345013e-07 0.0003340144 1.331948e-05   52.70999
##  6 facebook     newsfeed    32 2.273952e-08 0.0003340144 1.370003e-06   49.69292
##  7 facebook       hiphop    29 2.060769e-08 0.0003340144 1.484170e-06   41.57004
##  8 facebook mashable.com    24 1.705464e-08 0.0003340144 1.293892e-06   39.46203
##  9 facebook   friendster    30 2.131830e-08 0.0003340144 1.636393e-06   39.00317
## 10 facebook        gtalk    22 1.563342e-08 0.0003340144 1.217781e-06   38.43437
## # ... with 1,736 more rows

What about the programming language Scala?

normalized_prob %>% 
    filter(word1 == "scala") %>%
    arrange(-p_together)

## # A tibble: 445 x 7
##    word1        word2     n            p           p1           p2 p_together
##    <chr>        <chr> <dbl>        <dbl>        <dbl>        <dbl>      <dbl>
##  1 scala        scala  9159 6.508478e-06 5.449568e-05 5.449568e-05 2191.56919
##  2 scala      odersky    47 3.339867e-08 5.449568e-05 1.103614e-06  555.32856
##  3 scala         akka    74 5.258514e-08 5.449568e-05 3.006396e-06  320.96285
##  4 scala          sbt    31 2.202891e-08 5.449568e-05 1.446115e-06  279.52988
##  5 scala       groovy    88 6.253369e-08 5.449568e-05 5.594180e-06  205.12353
##  6 scala           mu    23 1.634403e-08 5.449568e-05 1.826671e-06  164.18624
##  7 scala       kotlin    92 6.537613e-08 5.449568e-05 7.382795e-06  162.49359
##  8 scala      clojure   472 3.354080e-07 5.449568e-05 5.719764e-05  107.60518
##  9 scala constructors    23 1.634403e-08 5.449568e-05 2.816118e-06  106.49918
## 10 scala    idiomatic    54 3.837294e-08 5.449568e-05 7.573073e-06   92.98028
## # ... with 435 more rows
…
    similarities <- word_vectors %*% selected_vector %>%
        tidy() %>%
        as_tibble() %>%
        rename(token = .rownames,
               similarity = unrowname.x.)
    
    similarities %>%
        arrange(-similarity)    
}

facebook <- search_synonyms(word_vectors, word_vectors["facebook",])
facebook

## # A tibble: 69,411 x 2
##        token similarity
##        <chr>      <dbl>
##  1  facebook 0.07732632
##  2   twitter 0.05418014
##  3    google 0.05011162
##  4    social 0.04259758
##  5        fb 0.03549460
##  6   account 0.03347402
##  7 instagram 0.02990053
##  8    photos 0.02680315
##  9     users 0.02601248
## 10   friends 0.02547189
## # ... with 69,401 more rows

haskell <- search_synonyms(word_vectors, word_vectors["haskell",])
haskell

## # A tibble: 69,411 x 2
##          token similarity
##          <chr>      <dbl>
##  1     haskell 0.03949794
##  2        lisp 0.03634116
##  3   languages 0.03591368
##  4    language 0.03128933
##  5  functional 0.02969273
##  6 programming 0.02685119
##  7     clojure 0.02609575
##  8       scala 0.02604054
##  9      python 0.02541462
## 10      erlang 0.02382765
## # ... with 69,401 more rows
…
We can also do the familiar WORD MATH that is so fun with the output of word2vec; you have probably seen examples such as King - Man + Woman = Queen and such. We can just add and subtract our word vectors, and then search the matrix we built!

If the iPhone is an important product associated with Apple, as discussed on Hacker News, what is an important product associated with Microsoft?

mystery_product <- word_vectors["iphone",] - word_vectors["apple",] + word_vectors["microsoft",]
search_synonyms(word_vectors, mystery_product)

## # A tibble: 69,411 x 2
##        token similarity
##        <chr>      <dbl>
##  1   windows 0.03847298
##  2     phone 0.02785154
##  3    iphone 0.02642861
##  4    mobile 0.02564263
##  5   android 0.02475795
##  6       ios 0.02233122
##  7 microsoft 0.02095453
##  8         7 0.02093067
##  9         t 0.02085600
## 10         8 0.02061549
## # ... with 69,401 more rows

We even see some mobile phone and Android terms in this list, below Windows.

What about an important product associated with Google?

mystery_product <- word_vectors["iphone",] - word_vectors["apple",] + word_vectors["google",]
search_synonyms(word_vectors, mystery_product)

## # A tibble: 69,411 x 2
##       token similarity
##       <chr>      <dbl>
##  1   google 0.10097056
##  2   search 0.06054602
##  3      app 0.04070347
##  4    phone 0.03854913
##  5   engine 0.03560017
##  6 facebook 0.03447097
##  7  android 0.03273318
##  8   chrome 0.03020063
##  9   iphone 0.02991398
## 10    gmail 0.02895055
## # ... with 69,401 more rows

Google itself is at the top of the list, which is something that often happens to me when I try this word vector arithmetic no matter how I train them (usually one of the positive vectors in the “equation”). Does anyone know what that means? Anyway, “search”, “app”, “phone” and “engine” are next on the list.

mystery_product <- word_vectors["iphone",] - word_vectors["apple",] + word_vectors["amazon",]
search_synonyms(word_vectors, mystery_product)

## # A tibble: 69,411 x 2
##      token similarity
##      <chr>      <dbl>
##  1  amazon 0.04648808
##  2     aws 0.04216195
##  3      s3 0.03398973
##  4   cloud 0.03201470
##  5     ec2 0.03157737
##  6    book 0.02970601
##  7  iphone 0.02736457
##  8   books 0.02597030
##  9 storage 0.02410764
## 10     app 0.02395586
## # ... with 69,401 more rows
…
