…
office_info <- schrute::theoffice %>%
  mutate(
    season = as.numeric(season),
    episode = as.numeric(episode),
    episode_name = str_to_lower(episode_name),
    episode_name = str_remove_all(episode_name, remove_regex),
    episode_name = str_trim(episode_name)
  ) %>%
  select(season, episode, episode_name, director, writer, character)

office_info

## # A tibble: 55,130 x 6
##    season episode episode_name director   writer                       character
##     <dbl>   <dbl> <chr>        <chr>      <chr>                        <chr>    
##  1      1       1 pilot        Ken Kwapis Ricky Gervais;Stephen Merch… Michael  
##  2      1       1 pilot        Ken Kwapis Ricky Gervais;Stephen Merch… Jim      
##  3      1       1 pilot        Ken Kwapis Ricky Gervais;Stephen Merch… Michael  
##  4      1       1 pilot        Ken Kwapis Ricky Gervais;Stephen Merch… Jim      
##  5      1       1 pilot        Ken Kwapis Ricky Gervais;Stephen Merch… Michael  
##  6      1       1 pilot        Ken Kwapis Ricky Gervais;Stephen Merch… Michael  
##  7      1       1 pilot        Ken Kwapis Ricky Gervais;Stephen Merch… Michael  
##  8      1       1 pilot        Ken Kwapis Ricky Gervais;Stephen Merch… Pam      
##  9      1       1 pilot        Ken Kwapis Ricky Gervais;Stephen Merch… Michael  
## 10      1       1 pilot        Ken Kwapis Ricky Gervais;Stephen Merch… Pam      
## # … with 55,120 more rows
…
characters <- office_info %>%
  count(episode_name, character) %>%
  add_count(character, wt = n, name = "character_count") %>%
  filter(character_count > 800) %>%
  select(-character_count) %>%
  pivot_wider(
    names_from = character,
    values_from = n,
    values_fill = list(n = 0)
  )

characters

## # A tibble: 185 x 16
##    episode_name  Andy Angela Darryl Dwight   Jim Kelly Kevin Michael Oscar   Pam
##    <chr>        <int>  <int>  <int>  <int> <int> <int> <int>   <int> <int> <int>
##  1 a benihana …    28     37      3     61    44     5    14     108     1    57
##  2 aarm            44     39     30     87    89     0    30       0    28    34
##  3 after hours     20     11     14     60    55     8     4       0    10    15
##  4 alliance         0      7      0     47    49     0     3      68    14    22
##  5 angry y         53      7      5     16    19    13     9       0     7    29
##  6 baby shower     13     13      9     35    27     2     4      79     3    25
##  7 back from v…     3      4      6     22    25     0     5      70     0    33
##  8 banker           1      2      0     17     0     0     2      44     0     5
##  9 basketball       0      3     15     25    21     0     1     104     2    14
## 10 beach games     18      8      0     38    22     9     5     105     5    23
## # … with 175 more rows, and 5 more variables: Phyllis <int>, Ryan <int>,
## #   Toby <int>, Erin <int>, Jan <int>
…
creators

## # A tibble: 135 x 14
##    episode_name `Ken Kwapis` `Greg Daniels` `B.J. Novak` `Paul Lieberste…
##    <chr>               <dbl>          <dbl>        <dbl>            <dbl>
##  1 pilot                   1              1            0                0
##  2 diversity d…            1              0            1                0
##  3 health care             0              0            0                1
##  4 basketball              0              1            0                0
##  5 hot girl                0              0            0                0
##  6 dundies                 0              1            0                0
##  7 sexual hara…            1              0            1                0
##  8 office olym…            0              0            0                0
##  9 fire                    1              0            1                0
## 10 halloween               0              1            0                0
## # … with 125 more rows, and 9 more variables: `Mindy Kaling` <dbl>, `Paul
## #   Feig` <dbl>, `Gene Stupnitsky` <dbl>, `Lee Eisenberg` <dbl>, `Jennifer
## #   Celotta` <dbl>, `Randall Einhorn` <dbl>, `Brent Forrester` <dbl>, `Jeffrey
## #   Blitz` <dbl>, `Justin Spitzer` <dbl>

Next, let’s find the season and episode number for each episode, and then finally let’s put it all together into one dataset for modeling.

office <- office_info %>%
  distinct(season, episode, episode_name) %>%
  inner_join(characters) %>%
  inner_join(creators) %>%
  inner_join(office_ratings %>%
    select(episode_name, imdb_rating)) %>%
  janitor::clean_names()

office

## # A tibble: 136 x 32
##    season episode episode_name  andy angela darryl dwight   jim kelly kevin
##     <dbl>   <dbl> <chr>        <int>  <int>  <int>  <int> <int> <int> <int>
##  1      1       1 pilot            0      1      0     29    36     0     1
##  2      1       2 diversity d…     0      4      0     17    25     2     8
##  3      1       3 health care      0      5      0     62    42     0     6
##  4      1       5 basketball       0      3     15     25    21     0     1
##  5      1       6 hot girl         0      3      0     28    55     0     5
##  6      2       1 dundies          0      1      1     32    32     7     1
##  7      2       2 sexual hara…     0      2      9     11    16     0     6
##  8      2       3 office olym…     0      6      0     55    55     0     9
##  9      2       4 fire             0     17      0     65    51     4     5
## 10      2       5 halloween        0     13      0     33    30     3     2
## # … with 126 more rows, and 22 more variables: michael <int>, oscar <int>,
## #   pam <int>, phyllis <int>, ryan <int>, toby <int>, erin <int>, jan <int>,
## #   ken_kwapis <dbl>, greg_daniels <dbl>, b_j_novak <dbl>,
## #   paul_lieberstein <dbl>, mindy_kaling <dbl>, paul_feig <dbl>,
## #   gene_stupnitsky <dbl>, lee_eisenberg <dbl>, jennifer_celotta <dbl>,
## #   randall_einhorn <dbl>, brent_forrester <dbl>, jeffrey_blitz <dbl>,
## #   justin_spitzer <dbl>, imdb_rating <dbl>
…
lasso_spec <- linear_reg(penalty = 0.1, mixture = 1) %>%
  set_engine("glmnet")

wf <- workflow() %>%
  add_recipe(office_rec)

lasso_fit <- wf %>%
  add_model(lasso_spec) %>%
  fit(data = office_train)

lasso_fit %>%
  pull_workflow_fit() %>%
  tidy()

## # A tibble: 1,639 x 5
##    term         step estimate lambda dev.ratio
##    <chr>       <dbl>    <dbl>  <dbl>     <dbl>
##  1 (Intercept)     1  8.39     0.183    0     
##  2 (Intercept)     2  8.39     0.167    0.0332
##  3 jim             2  0.0113   0.167    0.0332
##  4 michael         2  0.0150   0.167    0.0332
##  5 (Intercept)     3  8.39     0.152    0.0640
##  6 jim             3  0.0247   0.152    0.0640
##  7 michael         3  0.0283   0.152    0.0640
##  8 (Intercept)     4  8.39     0.139    0.0986
##  9 dwight          4  0.00236  0.139    0.0986
## 10 jim             4  0.0361   0.139    0.0986
## # … with 1,629 more rows
…
Now it’s time to tune the grid, using our workflow object.

doParallel::registerDoParallel()

set.seed(2020)
lasso_grid <- tune_grid(
  wf %>% add_model(tune_spec),
  resamples = office_boot,
  grid = lambda_grid
)

lasso_grid

## # Bootstrap sampling using stratification 
## # A tibble: 25 x 4
##    splits           id          .metrics           .notes          
##    <list>           <chr>       <list>             <list>          
##  1 <split [103/38]> Bootstrap01 <tibble [100 × 4]> <tibble [1 × 1]>
##  2 <split [103/36]> Bootstrap02 <tibble [100 × 4]> <tibble [1 × 1]>
##  3 <split [103/41]> Bootstrap03 <tibble [100 × 4]> <tibble [1 × 1]>
##  4 <split [103/37]> Bootstrap04 <tibble [100 × 4]> <tibble [1 × 1]>
##  5 <split [103/35]> Bootstrap05 <tibble [100 × 4]> <tibble [1 × 1]>
##  6 <split [103/40]> Bootstrap06 <tibble [100 × 4]> <tibble [1 × 1]>
##  7 <split [103/37]> Bootstrap07 <tibble [100 × 4]> <tibble [1 × 1]>
##  8 <split [103/41]> Bootstrap08 <tibble [100 × 4]> <tibble [1 × 1]>
##  9 <split [103/34]> Bootstrap09 <tibble [100 × 4]> <tibble [1 × 1]>
## 10 <split [103/45]> Bootstrap10 <tibble [100 × 4]> <tibble [1 × 1]>
## # … with 15 more rows

What results did we get?

lasso_grid %>%
  collect_metrics()

## # A tibble: 100 x 6
##     penalty .metric .estimator   mean     n std_err
##       <dbl> <chr>   <chr>       <dbl> <int>   <dbl>
##  1 1.00e-10 rmse    standard   0.638     25  0.0177
##  2 1.00e-10 rsq     standard   0.0911    25  0.0132
##  3 1.60e-10 rmse    standard   0.638     25  0.0177
##  4 1.60e-10 rsq     standard   0.0911    25  0.0132
##  5 2.56e-10 rmse    standard   0.638     25  0.0177
##  6 2.56e-10 rsq     standard   0.0911    25  0.0132
##  7 4.09e-10 rmse    standard   0.638     25  0.0177
##  8 4.09e-10 rsq     standard   0.0911    25  0.0132
##  9 6.55e-10 rmse    standard   0.638     25  0.0177
## 10 6.55e-10 rsq     standard   0.0911    25  0.0132
## # … with 90 more rows
…
